#Command: "C:\Program Files (x86)\Microsoft Visual Studio\2019\Enterprise\VC\Tools\MSVC\14.24.28314\bin\HostX86\x86\link.exe" /ERRORREPORT:PROMPT @C:\Users\Arox\AppData\Local\Temp\tmpb635923850b04e18a2e13dcb5ed6ce88.rsp /nologo /incremental /fullbuild
^E:\PROGRAMMIERUNG\SOFTWARETECH\PROJECTDISKINFO\CRYSTALDISKINFO\BUILD\DEBUGWIN32\ABOUTDLG.OBJ|E:\PROGRAMMIERUNG\SOFTWARETECH\PROJECTDISKINFO\CRYSTALDISKINFO\BUILD\DEBUGWIN32\ATASMART.OBJ|E:\PROGRAMMIERUNG\SOFTWARETECH\PROJECTDISKINFO\CRYSTALDISKINFO\BUILD\DEBUGWIN32\BUBBLEHTML.OBJ|E:\PROGRAMMIERUNG\SOFTWARETECH\PROJECTDISKINFO\CRYSTALDISKINFO\BUILD\DEBUGWIN32\BUTTONCX.OBJ|E:\PROGRAMMIERUNG\SOFTWARETECH\PROJECTDISKINFO\CRYSTALDISKINFO\BUILD\DEBUGWIN32\COMBOBOXCX.OBJ|E:\PROGRAMMIERUNG\SOFTWARETECH\PROJECTDISKINFO\CRYSTALDISKINFO\BUILD\DEBUGWIN32\DEBUGPRINT.OBJ|E:\PROGRAMMIERUNG\SOFTWARETECH\PROJECTDISKINFO\CRYSTALDISKINFO\BUILD\DEBUGWIN32\DHTMLDIALOGEX.OBJ|E:\PROGRAMMIERUNG\SOFTWARETECH\PROJECTDISKINFO\CRYSTALDISKINFO\BUILD\DEBUGWIN32\DHTMLMAINDIALOG.OBJ|E:\PROGRAMMIERUNG\SOFTWARETECH\PROJECTDISKINFO\CRYSTALDISKINFO\BUILD\DEBUGWIN32\DIALOGCX.OBJ|E:\PROGRAMMIERUNG\SOFTWARETECH\PROJECTDISKINFO\CRYSTALDISKINFO\BUILD\DEBUGWIN32\DISKINFO.OBJ|E:\PROGRAMMIERUNG\SOFTWARETECH\PROJECTDISKINFO\CRYSTALDISKINFO\BUILD\DEBUGWIN32\DISKINFO.RES|E:\PROGRAMMIERUNG\SOFTWARETECH\PROJECTDISKINFO\CRYSTALDISKINFO\BUILD\DEBUGWIN32\DISKINFODLG.OBJ|E:\PROGRAMMIERUNG\SOFTWARETECH\PROJECTDISKINFO\CRYSTALDISKINFO\BUILD\DEBUGWIN32\DISKINFODLGCOPY.OBJ|E:\PROGRAMMIERUNG\SOFTWARETECH\PROJECTDISKINFO\CRYSTALDISKINFO\BUILD\DEBUGWIN32\DISKINFODLGINIT.OBJ|E:\PROGRAMMIERUNG\SOFTWARETECH\PROJECTDISKINFO\CRYSTALDISKINFO\BUILD\DEBUGWIN32\DISKINFODLGMENU.OBJ|E:\PROGRAMMIERUNG\SOFTWARETECH\PROJECTDISKINFO\CRYSTALDISKINFO\BUILD\DEBUGWIN32\DISKINFODLGTRAY.OBJ|E:\PROGRAMMIERUNG\SOFTWARETECH\PROJECTDISKINFO\CRYSTALDISKINFO\BUILD\DEBUGWIN32\DISKINFODLGUPDATE.OBJ|E:\PROGRAMMIERUNG\SOFTWARETECH\PROJECTDISKINFO\CRYSTALDISKINFO\BUILD\DEBUGWIN32\EVENTLOG.OBJ|E:\PROGRAMMIERUNG\SOFTWARETECH\PROJECTDISKINFO\CRYSTALDISKINFO\BUILD\DEBUGWIN32\EVENTMESSAGE.RES|E:\PROGRAMMIERUNG\SOFTWARETECH\PROJECTDISKINFO\CRYSTALDISKINFO\BUILD\DEBUGWIN32\FONTCOMBOBOX.OBJ|E:\PROGRAMMIERUNG\SOFTWARETECH\PROJECTDISKINFO\CRYSTALDISKINFO\BUILD\DEBUGWIN32\FONTSELECTION.OBJ|E:\PROGRAMMIERUNG\SOFTWARETECH\PROJECTDISKINFO\CRYSTALDISKINFO\BUILD\DEBUGWIN32\GETFILEVERSION.OBJ|E:\PROGRAMMIERUNG\SOFTWARETECH\PROJECTDISKINFO\CRYSTALDISKINFO\BUILD\DEBUGWIN32\GETOSINFO.OBJ|E:\PROGRAMMIERUNG\SOFTWARETECH\PROJECTDISKINFO\CRYSTALDISKINFO\BUILD\DEBUGWIN32\GRAPHDLG.OBJ|E:\PROGRAMMIERUNG\SOFTWARETECH\PROJECTDISKINFO\CRYSTALDISKINFO\BUILD\DEBUGWIN32\HEALTHDLG.OBJ|E:\PROGRAMMIERUNG\SOFTWARETECH\PROJECTDISKINFO\CRYSTALDISKINFO\BUILD\DEBUGWIN32\ISCURRENTUSERLOCALADMINISTRATOR.OBJ|E:\PROGRAMMIERUNG\SOFTWARETECH\PROJECTDISKINFO\CRYSTALDISKINFO\BUILD\DEBUGWIN32\LISTCTRLEX.OBJ|E:\PROGRAMMIERUNG\SOFTWARETECH\PROJECTDISKINFO\CRYSTALDISKINFO\BUILD\DEBUGWIN32\MAINDIALOG.OBJ|E:\PROGRAMMIERUNG\SOFTWARETECH\PROJECTDISKINFO\CRYSTALDISKINFO\BUILD\DEBUGWIN32\NORMAL.RES|E:\PROGRAMMIERUNG\SOFTWARETECH\PROJECTDISKINFO\CRYSTALDISKINFO\BUILD\DEBUGWIN32\NVMEINTERPRETER.OBJ|E:\PROGRAMMIERUNG\SOFTWARETECH\PROJECTDISKINFO\CRYSTALDISKINFO\BUILD\DEBUGWIN32\OPTIONDLG.OBJ|E:\PROGRAMMIERUNG\SOFTWARETECH\PROJECTDISKINFO\CRYSTALDISKINFO\BUILD\DEBUGWIN32\SETTINGDLG.OBJ|E:\PROGRAMMIERUNG\SOFTWARETECH\PROJECTDISKINFO\CRYSTALDISKINFO\BUILD\DEBUGWIN32\SHIZUKU.RES|E:\PROGRAMMIERUNG\SOFTWARETECH\PROJECTDISKINFO\CRYSTALDISKINFO\BUILD\DEBUGWIN32\SLOTSPEEDGETTER.OBJ|E:\PROGRAMMIERUNG\SOFTWARETECH\PROJECTDISKINFO\CRYSTALDISKINFO\BUILD\DEBUGWIN32\SOUNDSETTINGDLG.OBJ|E:\PROGRAMMIERUNG\SOFTWARETECH\PROJECTDISKINFO\CRYSTALDISKINFO\BUILD\DEBUGWIN32\STATICCX.OBJ|E:\PROGRAMMIERUNG\SOFTWARETECH\PROJECTDISKINFO\CRYSTALDISKINFO\BUILD\DEBUGWIN32\STDAFX.OBJ|E:\PROGRAMMIERUNG\SOFTWARETECH\PROJECTDISKINFO\CRYSTALDISKINFO\BUILD\DEBUGWIN32\TEMPERATUREDLG.OBJ
E:\PROGRAMMIERUNG\SOFTWARETECH\PROJECTDISKINFO\CRYSTALDISKINFO\BUILD\DEBUGWIN32\DISKINFO32D.PDB
