^E:\PROGRAMMIERUNG\SOFTWARETECH\PROJECTDISKINFO\CRYSTALDISKINFO\DISKINFO.RC
/D _DEBUG /D _UNICODE /D UNICODE /l"0x0409" /IBUILD\DEBUGWIN32\ /nologo /fo"BUILD\DEBUGWIN32\DISKINFO.RES"  E:\PROGRAMMIERUNG\SOFTWARETECH\PROJECTDISKINFO\CRYSTALDISKINFO\DISKINFO.RC
^E:\PROGRAMMIERUNG\SOFTWARETECH\PROJECTDISKINFO\CRYSTALDISKINFO\EVENTMESSAGE.RC
/D _DEBUG /D _UNICODE /D UNICODE /l"0x0409" /IBUILD\DEBUGWIN32\ /nologo /fo"BUILD\DEBUGWIN32\EVENTMESSAGE.RES"  E:\PROGRAMMIERUNG\SOFTWARETECH\PROJECTDISKINFO\CRYSTALDISKINFO\EVENTMESSAGE.RC
^E:\PROGRAMMIERUNG\SOFTWARETECH\PROJECTDISKINFO\CRYSTALDISKINFO\NORMAL.RC
/D _DEBUG /D _UNICODE /D UNICODE /l"0x0409" /IBUILD\DEBUGWIN32\ /nologo /fo"BUILD\DEBUGWIN32\NORMAL.RES"  E:\PROGRAMMIERUNG\SOFTWARETECH\PROJECTDISKINFO\CRYSTALDISKINFO\NORMAL.RC
^E:\PROGRAMMIERUNG\SOFTWARETECH\PROJECTDISKINFO\CRYSTALDISKINFO\SHIZUKU.RC
/D _DEBUG /D _UNICODE /D UNICODE /l"0x0409" /IBUILD\DEBUGWIN32\ /nologo /fo"BUILD\DEBUGWIN32\SHIZUKU.RES"  E:\PROGRAMMIERUNG\SOFTWARETECH\PROJECTDISKINFO\CRYSTALDISKINFO\SHIZUKU.RC
