2019/12/12 22:01:22,27730
2019/12/12 23:00:59,27731
2019/12/13 00:00:35,27732
2019/12/14 18:43:10,27736
2019/12/14 19:45:25,27737
2019/12/14 20:14:13,27738
2019/12/16 19:59:05,27742
2019/12/16 21:23:28,27743
2019/12/16 21:55:20,27744
2019/12/16 23:24:35,27745
2019/12/17 18:23:01,27746
2019/12/17 19:10:56,27747
2019/12/17 20:09:04,27748
2019/12/17 21:05:42,27749
2019/12/22 13:32:47,27809
2019/12/28 16:26:18,27882
2019/12/28 17:31:15,27883
2019/12/30 16:16:19,27892
2019/12/30 16:37:20,27893
